[
  {
    "startDate":"2014-12-05T08:36:35.000+0000",
    "endDate":"2014-12-05T08:36:35.000+0000",
    "target":{
      "json-csatod-g5r7s":[
        {
          "subOffers":[
            "RALD_THEM",
            "RALD_CS_BASIC"
          ],
          "functionalType":"Film",
          "productType":"SD",
          "comMode":"vod_11",
          "drmType":"DRM PRM 30",
          "provisionning":"pending"
        },
        {
          "subOffers":[
            "RALD_THEM",
            "RALD_CS_BASIC"
          ],
          "functionalType":"Film",
          "productType":"HD",
          "comMode":"vod_10",
          "drmType":"DRM PRM 30",
          "provisionning":"done"
        }
      ],
      "json-mycanal-atab":[
        {
          "subOffers":[
            "RALD_THEM",
            "RALD_CS_BASIC"
          ],
          "functionalType":"Film",
          "productType":"HD",
          "comMode":"vod_10",
          "drmType":"DRM PRM 30",
          "provisionning":"removed"
        }
      ]
    }
  },
  {
    "startDate":"2015-12-05T08:36:35.000+0000",
    "endDate":"2016-12-05T08:36:35.000+0000",
    "target":{
      "json-csatod-g5r7s":[
        {
          "subOffers":[
            "RALD_THEM",
            "RALD_CS_BASIC"
          ],
          "functionalType":"Film",
          "productType":"SD",
          "comMode":"vod_11",
          "drmType":"DRM PRM 30",
          "provisionning":"pending"
        },
        {
          "subOffers":[
            "RALD_THEM",
            "RALD_CS_BASIC"
          ],
          "functionalType":"Film",
          "productType":"HD",
          "comMode":"vod_10",
          "drmType":"DRM PRM 30",
          "provisionning":"done"
        }
      ],
      "json-mycanal-atab":[
        {
          "subOffers":[
            "RALD_THEM",
            "RALD_CS_BASIC"
          ],
          "functionalType":"Film",
          "productType":"HD",
          "comMode":"vod_10",
          "drmType":"DRM PRM 30",
          "provisionning":"removed"
        }
      ]
    }
  }
]