{
  "XX-Content-Range": "content 10-20/252",
  "XX-Page-Range": "page 2/26",
  "Link": "<http://url/back/catalog/content?template=titlestart&params=title:a&start=1&max=10>; rel=\"first\",<http://url/back/catalog/content?template=titlestart&params=title:a&start=1&max=10>; rel=\"prev\",<http://url/back/catalog/content?template=titlestart&params=title:a&start=20&max=10>; rel=\"next\",<http://url/back/catalog/content?template=titlestart&params=title:a&start=250&max=10>; rel=\"last\""
}